ax_fq,3,4,ColPercent
2008Q4,30.55555556,2.777777778,33.33333333
2009Q1,28.16901409,4.225352113,32.3943662
2009Q2,25.67567568,2.702702703,28.37837838
2009Q3,27.14285714,0,27.14285714
2009Q4,23.68421053,0,23.68421053
2010Q1,24.24242424,0,24.24242424
2010Q2,24.61538462,0,24.61538462
2010Q3,32.30769231,0,32.30769231
2010Q4,26.2295082,0,26.2295082
2011Q1,34.54545455,1.818181818,36.36363636
2011Q2,41.17647059,0,41.17647059
2011Q3,34.61538462,0,34.61538462
2011Q4,41.17647059,0,41.17647059
2012Q1,36.23188406,0,36.23188406
2012Q2,35.38461539,1.538461539,36.92307692
2012Q3,44.28571429,4.285714286,48.57142857
2012Q4,40.84507042,5.633802817,46.47887324
2013Q1,42.46575343,2.739726027,45.20547945
2013Q2,22.05882353,4.411764706,26.47058823
2013Q3,36.36363636,4.545454546,40.90909091
2013Q4,30.98591549,5.633802817,36.61971831
2014Q1,31.14754098,4.918032787,36.06557377
2014Q2,18.75,3.125,21.875
2014Q3,25,8.333333333,33.33333333
2014Q4,34.92063492,3.174603175,38.0952381