QI_Ind_Code,fiscal_quarter_ax,QI_Denominator,QI_Unadjusted,QI_Adjusted,facility
QI_PRU05,2008Q3,48,0.10,0.04,A
QI_PRU05,2008Q4,49,0.16,0.04,A
QI_PRU05,2009Q1,46,0.09,0.04,A
QI_PRU05,2009Q2,55,0.11,0.03,A
QI_PRU05,2009Q3,49,0.14,0.05,A
QI_PRU05,2009Q4,50,0.18,0.14,A
QI_PRU05,2010Q1,53,0.08,0.06,A
QI_PRU05,2010Q2,48,0.15,0.07,A
QI_PRU05,2010Q3,49,0.16,0.12,A
QI_PRU05,2010Q4,45,0.11,0.05,A
QI_PRU05,2011Q1,41,0.17,0.12,A
QI_PRU05,2011Q2,43,0.09,0.04,A
QI_PRU05,2011Q3,39,0.08,0.02,A
QI_PRU05,2011Q4,36,0.14,0.05,A
QI_PRU05,2012Q1,41,0.15,0.05,A
QI_PRU05,2012Q2,46,0.11,0.02,A
QI_PRU05,2012Q3,42,0.10,0.02,A
QI_PRU05,2012Q4,31,0.13,0.04,A
QI_PRU05,2013Q1,36,0.11,0.04,A
QI_PRU05,2013Q2,43,0.14,0.06,A
QI_PRU05,2013Q3,49,0.18,0.13,A
QI_PRU05,2013Q4,43,0.14,0.07,A
QI_PRU05,2014Q1,43,0.12,0.07,A
QI_PRU05,2014Q2,45,0.13,0.06,A
QI_PRU05,2014Q3,46,0.11,0.05,A
QI_PRU05,2014Q4,39,0.08,0.05,A
QI_PRU05,2008Q3,8,0.13,,B
QI_PRU05,2008Q4,10,0.20,,B
QI_PRU05,2009Q1,10,0.30,,B
QI_PRU05,2009Q2,8,0.13,,B
QI_PRU05,2009Q3,8,0.38,,B
QI_PRU05,2009Q4,5,0.00,,B
QI_PRU05,2010Q1,7,0.14,,B
QI_PRU05,2010Q2,4,0.00,,B
QI_PRU05,2010Q3,5,0.20,,B
QI_PRU05,2010Q4,7,0.14,,B
QI_PRU05,2011Q1,5,0.00,,B
QI_PRU05,2011Q2,5,0.00,,B
QI_PRU05,2011Q3,4,0.00,,B
QI_PRU05,2011Q4,8,0.13,,B
QI_PRU05,2012Q1,5,0.00,,B
QI_PRU05,2012Q2,12,0.17,,B
QI_PRU05,2012Q3,8,0.25,,B
QI_PRU05,2012Q4,9,0.44,,B
QI_PRU05,2013Q1,7,0.14,,B
QI_PRU05,2013Q2,7,0.00,,B
QI_PRU05,2013Q3,8,0.00,,B
QI_PRU05,2013Q4,2,0.00,,B
QI_PRU05,2014Q1,10,0.10,,B
QI_PRU05,2014Q2,6,0.00,,B
QI_PRU05,2014Q3,8,0.00,,B
QI_PRU05,2014Q4,15,0.13,,B
QI_PRU05,2008Q3,117,0.17,0.11,C
QI_PRU05,2008Q4,136,0.11,0.05,C
QI_PRU05,2009Q1,130,0.09,0.10,C
QI_PRU05,2009Q2,132,0.14,0.13,C
QI_PRU05,2009Q3,126,0.14,0.08,C
QI_PRU05,2009Q4,133,0.17,0.14,C
QI_PRU05,2010Q1,121,0.15,0.06,C
QI_PRU05,2010Q2,133,0.17,0.12,C
QI_PRU05,2010Q3,128,0.12,0.05,C
QI_PRU05,2010Q4,136,0.13,0.11,C
QI_PRU05,2011Q1,135,0.07,0.04,C
QI_PRU05,2011Q2,134,0.08,0.03,C
QI_PRU05,2011Q3,140,0.13,0.11,C
QI_PRU05,2011Q4,136,0.13,0.07,C
QI_PRU05,2012Q1,129,0.14,0.07,C
QI_PRU05,2012Q2,126,0.11,0.06,C
QI_PRU05,2012Q3,120,0.13,0.08,C
QI_PRU05,2012Q4,126,0.13,0.08,C
QI_PRU05,2013Q1,118,0.16,0.11,C
QI_PRU05,2013Q2,118,0.14,0.16,C
QI_PRU05,2013Q3,113,0.12,0.06,C
QI_PRU05,2013Q4,118,0.12,0.06,C
QI_PRU05,2014Q1,119,0.10,0.07,C
QI_PRU05,2014Q2,102,0.15,0.10,C
QI_PRU05,2014Q3,110,0.13,0.08,C
QI_PRU05,2014Q4,110,0.14,0.06,C
QI_PRU05,2008Q3,287,0.11,0.02,D
QI_PRU05,2008Q4,268,0.12,0.03,D
QI_PRU05,2009Q1,272,0.10,0.02,D
QI_PRU05,2009Q2,272,0.10,0.02,D
QI_PRU05,2009Q3,284,0.11,0.03,D
QI_PRU05,2009Q4,259,0.10,0.02,D
QI_PRU05,2010Q1,273,0.10,0.02,D
QI_PRU05,2010Q2,285,0.13,0.03,D
QI_PRU05,2010Q3,278,0.10,0.03,D
QI_PRU05,2010Q4,264,0.08,0.02,D
QI_PRU05,2011Q1,262,0.07,0.02,D
QI_PRU05,2011Q2,276,0.08,0.02,D
QI_PRU05,2011Q3,276,0.07,0.02,D
QI_PRU05,2011Q4,270,0.06,0.02,D
QI_PRU05,2012Q1,300,0.07,0.03,D
QI_PRU05,2012Q2,298,0.10,0.03,D
QI_PRU05,2012Q3,279,0.06,0.02,D
QI_PRU05,2012Q4,271,0.05,0.02,D
QI_PRU05,2013Q1,265,0.06,0.02,D
QI_PRU05,2013Q2,265,0.07,0.02,D
QI_PRU05,2013Q3,270,0.05,0.01,D
QI_PRU05,2013Q4,263,0.03,0.01,D
QI_PRU05,2014Q1,272,0.06,0.02,D
QI_PRU05,2014Q2,296,0.05,0.02,D
QI_PRU05,2014Q3,284,0.05,0.01,D
QI_PRU05,2014Q4,272,0.05,0.02,D
QI_PRU05,2008Q3,118,0.12,0.06,E
QI_PRU05,2008Q4,121,0.11,0.07,E
QI_PRU05,2009Q1,117,0.16,0.10,E
QI_PRU05,2009Q2,127,0.19,0.13,E
QI_PRU05,2009Q3,132,0.14,0.09,E
QI_PRU05,2009Q4,113,0.14,0.10,E
QI_PRU05,2010Q1,91,0.16,0.10,E
QI_PRU05,2010Q2,73,0.18,0.12,E
QI_PRU05,2010Q3,76,0.20,0.08,E
QI_PRU05,2010Q4,73,0.12,0.06,E
QI_PRU05,2011Q1,54,0.15,0.07,E
QI_PRU05,2011Q2,70,0.23,0.14,E
QI_PRU05,2011Q3,59,0.20,0.13,E
QI_PRU05,2011Q4,52,0.19,0.11,E
QI_PRU05,2012Q1,46,0.20,0.12,E
QI_PRU05,2012Q2,38,0.05,0.04,E
QI_PRU05,2012Q3,36,0.17,0.13,E
QI_PRU05,2012Q4,43,0.21,0.15,E
QI_PRU05,2013Q1,28,0.11,0.11,E
QI_PRU05,2013Q2,28,0.14,0.12,E
QI_PRU05,2013Q3,29,0.14,0.09,E
QI_PRU05,2013Q4,26,0.23,0.19,E
QI_PRU05,2014Q1,24,0.08,0.07,E
QI_PRU05,2014Q2,30,0.13,0.07,E
QI_PRU05,2014Q3,45,0.16,0.09,E
QI_PRU05,2014Q4,30,0.23,0.11,E
QI_PRU05,2008Q3,71,0.08,0.04,TGHC
QI_PRU05,2008Q4,74,0.12,0.04,TGHC
QI_PRU05,2009Q1,76,0.13,0.07,TGHC
QI_PRU05,2009Q2,80,0.15,0.09,TGHC
QI_PRU05,2009Q3,75,0.13,0.07,TGHC
QI_PRU05,2009Q4,84,0.17,0.09,TGHC
QI_PRU05,2010Q1,78,0.23,0.12,TGHC
QI_PRU05,2010Q2,73,0.21,0.10,TGHC
QI_PRU05,2010Q3,70,0.24,0.11,TGHC
QI_PRU05,2010Q4,72,0.26,0.10,TGHC
QI_PRU05,2011Q1,65,0.31,0.11,TGHC
QI_PRU05,2011Q2,61,0.28,0.06,TGHC
QI_PRU05,2011Q3,61,0.25,0.10,TGHC
QI_PRU05,2011Q4,58,0.21,0.04,TGHC
QI_PRU05,2012Q1,75,0.24,0.06,TGHC
QI_PRU05,2012Q2,73,0.25,0.08,TGHC
QI_PRU05,2012Q3,77,0.21,0.04,TGHC
QI_PRU05,2012Q4,78,0.15,0.03,TGHC
QI_PRU05,2013Q1,78,0.17,0.05,TGHC
QI_PRU05,2013Q2,74,0.15,0.06,TGHC
QI_PRU05,2013Q3,70,0.17,0.06,TGHC
QI_PRU05,2013Q4,74,0.24,0.13,TGHC
QI_PRU05,2014Q1,66,0.17,0.08,TGHC
QI_PRU05,2014Q2,72,0.26,0.15,TGHC
QI_PRU05,2014Q3,66,0.27,0.22,TGHC
QI_PRU05,2014Q4,72,0.24,0.14,TGHC
QI_PRU05,2008Q3,190,0.26,0.15,F
QI_PRU05,2008Q4,198,0.25,0.15,F
QI_PRU05,2009Q1,205,0.22,0.13,F
QI_PRU05,2009Q2,192,0.18,0.09,F
QI_PRU05,2009Q3,179,0.18,0.11,F
QI_PRU05,2009Q4,184,0.17,0.10,F
QI_PRU05,2010Q1,199,0.18,0.11,F
QI_PRU05,2010Q2,208,0.18,0.11,F
QI_PRU05,2010Q3,185,0.18,0.12,F
QI_PRU05,2010Q4,177,0.18,0.13,F
QI_PRU05,2011Q1,157,0.18,0.14,F
QI_PRU05,2011Q2,175,0.17,0.09,F
QI_PRU05,2011Q3,171,0.14,0.08,F
QI_PRU05,2011Q4,174,0.17,0.10,F
QI_PRU05,2012Q1,177,0.16,0.07,F
QI_PRU05,2012Q2,147,0.20,0.11,F
QI_PRU05,2012Q3,158,0.16,0.09,F
QI_PRU05,2012Q4,145,0.10,0.06,F
QI_PRU05,2013Q1,137,0.20,0.09,F
QI_PRU05,2013Q2,143,0.19,0.10,F
QI_PRU05,2013Q3,131,0.18,0.07,F
QI_PRU05,2013Q4,114,0.11,0.04,F
QI_PRU05,2014Q1,97,0.08,0.05,F
QI_PRU05,2014Q2,79,0.14,0.08,F
QI_PRU05,2014Q3,62,0.11,0.07,F
QI_PRU05,2014Q4,41,0.12,0.04,F
QI_PRU05,2008Q3,76,0.13,0.08,G
QI_PRU05,2008Q4,98,0.16,0.09,G
QI_PRU05,2009Q1,83,0.14,0.08,G
QI_PRU05,2009Q2,76,0.16,0.08,G
QI_PRU05,2009Q3,74,0.15,0.09,G
QI_PRU05,2009Q4,73,0.14,0.09,G
QI_PRU05,2010Q1,73,0.23,0.15,G
QI_PRU05,2010Q2,76,0.20,0.12,G
QI_PRU05,2010Q3,64,0.22,0.14,G
QI_PRU05,2010Q4,56,0.18,0.12,G
QI_PRU05,2011Q1,56,0.14,0.09,G
QI_PRU05,2011Q2,44,0.20,0.11,G
QI_PRU05,2011Q3,45,0.24,0.17,G
QI_PRU05,2011Q4,15,0.13,,G
QI_PRU05,2008Q3,17,0.06,,H
QI_PRU05,2008Q4,17,0.06,,H
QI_PRU05,2009Q1,19,0.11,,H
QI_PRU05,2009Q2,18,0.11,,H
QI_PRU05,2009Q3,19,0.05,,H
QI_PRU05,2009Q4,21,0.05,0.02,H
QI_PRU05,2010Q1,20,0.05,0.02,H
QI_PRU05,2010Q2,19,0.05,,H
QI_PRU05,2010Q3,19,0.05,,H
QI_PRU05,2010Q4,19,0.05,,H
QI_PRU05,2011Q1,18,0.11,,H
QI_PRU05,2011Q2,20,0.25,0.13,H
QI_PRU05,2011Q3,20,0.10,0.05,H
QI_PRU05,2011Q4,18,0.06,,H
QI_PRU05,2012Q1,19,0.00,,H
QI_PRU05,2012Q2,19,0.00,,H
QI_PRU05,2012Q3,18,0.00,,H
QI_PRU05,2012Q4,19,0.00,,H
QI_PRU05,2013Q1,20,0.00,0.00,H
QI_PRU05,2013Q2,20,0.00,0.00,H
QI_PRU05,2013Q3,16,0.00,,H
QI_PRU05,2013Q4,16,0.00,,H
QI_PRU05,2014Q1,15,0.00,,H
QI_PRU05,2014Q2,17,0.06,,H
QI_PRU05,2014Q3,13,0.15,,H
QI_PRU05,2014Q4,14,0.07,,H
QI_PRU05,2008Q3,164,0.25,0.07,I
QI_PRU05,2008Q4,154,0.19,0.05,I
QI_PRU05,2009Q1,149,0.24,0.06,I
QI_PRU05,2009Q2,167,0.23,0.05,I
QI_PRU05,2009Q3,160,0.21,0.03,I
QI_PRU05,2009Q4,144,0.18,0.02,I
QI_PRU05,2010Q1,157,0.23,0.05,I
QI_PRU05,2010Q2,166,0.19,0.02,I
QI_PRU05,2010Q3,147,0.22,0.03,I
QI_PRU05,2010Q4,137,0.22,0.04,I
QI_PRU05,2011Q1,131,0.22,0.02,I
QI_PRU05,2011Q2,133,0.22,0.02,I
QI_PRU05,2011Q3,131,0.23,0.04,I
QI_PRU05,2011Q4,123,0.18,0.03,I
QI_PRU05,2012Q1,127,0.15,0.03,I
QI_PRU05,2012Q2,120,0.16,0.02,I
QI_PRU05,2012Q3,138,0.18,0.03,I
QI_PRU05,2012Q4,126,0.21,0.03,I
QI_PRU05,2013Q1,138,0.21,0.03,I
QI_PRU05,2013Q2,128,0.20,0.03,I
QI_PRU05,2013Q3,136,0.19,0.04,I
QI_PRU05,2013Q4,134,0.14,0.04,I
QI_PRU05,2014Q1,143,0.12,0.02,I
QI_PRU05,2014Q2,138,0.19,0.06,I
QI_PRU05,2014Q3,120,0.18,0.05,I
QI_PRU05,2014Q4,122,0.17,0.03,I
QI_PRU05,2008Q3,78,0.06,0.03,J
QI_PRU05,2008Q4,82,0.09,0.04,J
QI_PRU05,2009Q1,82,0.09,0.05,J
QI_PRU05,2009Q2,82,0.09,0.04,J
QI_PRU05,2009Q3,86,0.05,0.03,J
QI_PRU05,2009Q4,81,0.07,0.04,J
QI_PRU05,2010Q1,84,0.15,0.07,J
QI_PRU05,2010Q2,89,0.09,0.04,J
QI_PRU05,2010Q3,89,0.03,0.01,J
QI_PRU05,2010Q4,89,0.08,0.07,J
QI_PRU05,2011Q1,89,0.09,0.07,J
QI_PRU05,2011Q2,94,0.15,0.10,J
QI_PRU05,2011Q3,111,0.16,0.11,J
QI_PRU05,2011Q4,108,0.11,0.10,J
QI_PRU05,2012Q1,111,0.09,0.03,J
QI_PRU05,2012Q2,124,0.10,0.09,J
QI_PRU05,2012Q3,119,0.08,0.05,J
QI_PRU05,2012Q4,122,0.08,0.12,J
QI_PRU05,2013Q1,131,0.12,0.07,J
QI_PRU05,2013Q2,133,0.15,0.08,J
QI_PRU05,2013Q3,148,0.13,0.07,J
QI_PRU05,2013Q4,143,0.13,0.08,J
QI_PRU05,2014Q1,136,0.08,0.03,J
QI_PRU05,2014Q2,143,0.10,0.06,J
QI_PRU05,2014Q3,139,0.08,0.03,J
QI_PRU05,2014Q4,125,0.06,0.04,J
QI_PRU06,2008Q4,49,0.10,0.02,A
QI_PRU06,2009Q1,46,0.04,0.04,A
QI_PRU06,2009Q2,55,0.09,0.03,A
QI_PRU06,2009Q3,48,0.08,0.03,A
QI_PRU06,2009Q4,50,0.10,0.10,A
QI_PRU06,2010Q1,51,0.02,0.02,A
QI_PRU06,2010Q2,47,0.09,0.03,A
QI_PRU06,2010Q3,49,0.06,0.02,A
QI_PRU06,2010Q4,45,0.00,0.00,A
QI_PRU06,2011Q1,41,0.05,0.02,A
QI_PRU06,2011Q2,42,0.00,0.00,A
QI_PRU06,2011Q3,38,0.00,0.00,A
QI_PRU06,2011Q4,35,0.06,0.06,A
QI_PRU06,2012Q1,40,0.00,0.00,A
QI_PRU06,2012Q2,45,0.04,0.02,A
QI_PRU06,2012Q3,41,0.02,0.01,A
QI_PRU06,2012Q4,30,0.00,0.00,A
QI_PRU06,2013Q1,36,0.00,0.00,A
QI_PRU06,2013Q2,42,0.05,0.06,A
QI_PRU06,2013Q3,49,0.10,0.15,A
QI_PRU06,2013Q4,43,0.05,0.02,A
QI_PRU06,2014Q1,43,0.00,0.00,A
QI_PRU06,2014Q2,44,0.05,0.02,A
QI_PRU06,2014Q3,45,0.02,0.01,A
QI_PRU06,2014Q4,39,0.00,0.00,A
QI_PRU06,2008Q4,10,0.20,,B
QI_PRU06,2009Q1,10,0.20,,B
QI_PRU06,2009Q2,8,0.13,,B
QI_PRU06,2009Q3,7,0.43,,B
QI_PRU06,2009Q4,5,0.00,,B
QI_PRU06,2010Q1,7,0.00,,B
QI_PRU06,2010Q2,4,0.00,,B
QI_PRU06,2010Q3,4,0.00,,B
QI_PRU06,2010Q4,7,0.00,,B
QI_PRU06,2011Q1,5,0.00,,B
QI_PRU06,2011Q2,4,0.00,,B
QI_PRU06,2011Q3,4,0.00,,B
QI_PRU06,2011Q4,8,0.13,,B
QI_PRU06,2012Q1,4,0.00,,B
QI_PRU06,2012Q2,10,0.10,,B
QI_PRU06,2012Q3,8,0.13,,B
QI_PRU06,2012Q4,9,0.22,,B
QI_PRU06,2013Q1,7,0.14,,B
QI_PRU06,2013Q2,7,0.00,,B
QI_PRU06,2013Q3,7,0.00,,B
QI_PRU06,2013Q4,2,0.00,,B
QI_PRU06,2014Q1,9,0.11,,B
QI_PRU06,2014Q2,6,0.00,,B
QI_PRU06,2014Q3,8,0.00,,B
QI_PRU06,2014Q4,13,0.00,,B
QI_PRU06,2008Q4,133,0.05,0.01,C
QI_PRU06,2009Q1,125,0.02,0.06,C
QI_PRU06,2009Q2,126,0.06,0.06,C
QI_PRU06,2009Q3,117,0.05,0.04,C
QI_PRU06,2009Q4,126,0.07,0.06,C
QI_PRU06,2010Q1,115,0.03,0.01,C
QI_PRU06,2010Q2,128,0.07,0.02,C
QI_PRU06,2010Q3,123,0.02,0.00,C
QI_PRU06,2010Q4,131,0.05,0.01,C
QI_PRU06,2011Q1,130,0.02,0.02,C
QI_PRU06,2011Q2,128,0.02,0.01,C
QI_PRU06,2011Q3,134,0.04,0.09,C
QI_PRU06,2011Q4,129,0.02,0.01,C
QI_PRU06,2012Q1,123,0.07,0.06,C
QI_PRU06,2012Q2,116,0.04,0.03,C
QI_PRU06,2012Q3,114,0.04,0.03,C
QI_PRU06,2012Q4,120,0.05,0.03,C
QI_PRU06,2013Q1,109,0.08,0.06,C
QI_PRU06,2013Q2,113,0.04,0.04,C
QI_PRU06,2013Q3,108,0.02,0.00,C
QI_PRU06,2013Q4,114,0.03,0.01,C
QI_PRU06,2014Q1,114,0.03,0.02,C
QI_PRU06,2014Q2,94,0.03,0.02,C
QI_PRU06,2014Q3,105,0.06,0.05,C
QI_PRU06,2014Q4,101,0.04,0.01,C
QI_PRU06,2008Q4,263,0.05,0.03,D
QI_PRU06,2009Q1,264,0.04,0.01,D
QI_PRU06,2009Q2,265,0.03,0.02,D
QI_PRU06,2009Q3,273,0.06,0.03,D
QI_PRU06,2009Q4,256,0.06,0.03,D
QI_PRU06,2010Q1,262,0.05,0.01,D
QI_PRU06,2010Q2,274,0.05,0.02,D
QI_PRU06,2010Q3,269,0.02,0.01,D
QI_PRU06,2010Q4,261,0.05,0.02,D
QI_PRU06,2011Q1,259,0.03,0.02,D
QI_PRU06,2011Q2,264,0.02,0.01,D
QI_PRU06,2011Q3,261,0.03,0.03,D
QI_PRU06,2011Q4,262,0.02,0.01,D
QI_PRU06,2012Q1,288,0.05,0.03,D
QI_PRU06,2012Q2,278,0.04,0.02,D
QI_PRU06,2012Q3,262,0.02,0.01,D
QI_PRU06,2012Q4,263,0.03,0.02,D
QI_PRU06,2013Q1,253,0.02,0.01,D
QI_PRU06,2013Q2,258,0.04,0.03,D
QI_PRU06,2013Q3,260,0.03,0.01,D
QI_PRU06,2013Q4,255,0.02,0.01,D
QI_PRU06,2014Q1,260,0.04,0.03,D
QI_PRU06,2014Q2,283,0.03,0.02,D
QI_PRU06,2014Q3,266,0.02,0.01,D
QI_PRU06,2014Q4,259,0.03,0.02,D
QI_PRU06,2008Q4,114,0.04,0.01,E
QI_PRU06,2009Q1,113,0.07,0.05,E
QI_PRU06,2009Q2,120,0.08,0.05,E
QI_PRU06,2009Q3,121,0.05,0.04,E
QI_PRU06,2009Q4,106,0.08,0.08,E
QI_PRU06,2010Q1,80,0.04,0.04,E
QI_PRU06,2010Q2,67,0.09,0.10,E
QI_PRU06,2010Q3,64,0.03,0.01,E
QI_PRU06,2010Q4,65,0.03,0.01,E
QI_PRU06,2011Q1,49,0.04,0.01,E
QI_PRU06,2011Q2,64,0.14,0.15,E
QI_PRU06,2011Q3,56,0.11,0.08,E
QI_PRU06,2011Q4,50,0.08,0.06,E
QI_PRU06,2012Q1,45,0.13,0.04,E
QI_PRU06,2012Q2,37,0.05,0.05,E
QI_PRU06,2012Q3,35,0.14,0.11,E
QI_PRU06,2012Q4,41,0.12,0.10,E
QI_PRU06,2013Q1,28,0.07,0.08,E
QI_PRU06,2013Q2,26,0.08,0.08,E
QI_PRU06,2013Q3,26,0.12,0.11,E
QI_PRU06,2013Q4,24,0.17,0.18,E
QI_PRU06,2014Q1,24,0.08,0.09,E
QI_PRU06,2014Q2,29,0.14,0.05,E
QI_PRU06,2014Q3,44,0.14,0.12,E
QI_PRU06,2014Q4,29,0.14,0.12,E
QI_PRU06,2008Q4,72,0.01,0.00,TGHC
QI_PRU06,2009Q1,71,0.01,0.00,TGHC
QI_PRU06,2009Q2,74,0.03,0.03,TGHC
QI_PRU06,2009Q3,70,0.03,0.01,TGHC
QI_PRU06,2009Q4,76,0.00,0.00,TGHC
QI_PRU06,2010Q1,66,0.06,0.05,TGHC
QI_PRU06,2010Q2,65,0.02,0.01,TGHC
QI_PRU06,2010Q3,65,0.06,0.05,TGHC
QI_PRU06,2010Q4,61,0.03,0.01,TGHC
QI_PRU06,2011Q1,55,0.09,0.03,TGHC
QI_PRU06,2011Q2,51,0.06,0.02,TGHC
QI_PRU06,2011Q3,52,0.02,0.01,TGHC
QI_PRU06,2011Q4,51,0.02,0.01,TGHC
QI_PRU06,2012Q1,69,0.09,0.03,TGHC
QI_PRU06,2012Q2,65,0.03,0.01,TGHC
QI_PRU06,2012Q3,70,0.01,0.00,TGHC
QI_PRU06,2012Q4,71,0.00,0.00,TGHC
QI_PRU06,2013Q1,73,0.01,0.00,TGHC
QI_PRU06,2013Q2,68,0.06,0.08,TGHC
QI_PRU06,2013Q3,66,0.08,0.02,TGHC
QI_PRU06,2013Q4,71,0.14,0.12,TGHC
QI_PRU06,2014Q1,61,0.07,0.02,TGHC
QI_PRU06,2014Q2,64,0.13,0.09,TGHC
QI_PRU06,2014Q3,60,0.17,0.17,TGHC
QI_PRU06,2014Q4,63,0.06,0.02,TGHC
QI_PRU06,2008Q4,189,0.03,0.01,F
QI_PRU06,2009Q1,194,0.03,0.01,F
QI_PRU06,2009Q2,181,0.04,0.03,F
QI_PRU06,2009Q3,171,0.04,0.04,F
QI_PRU06,2009Q4,173,0.03,0.01,F
QI_PRU06,2010Q1,188,0.06,0.04,F
QI_PRU06,2010Q2,191,0.03,0.01,F
QI_PRU06,2010Q3,173,0.01,0.00,F
QI_PRU06,2010Q4,166,0.02,0.01,F
QI_PRU06,2011Q1,145,0.02,0.01,F
QI_PRU06,2011Q2,166,0.04,0.03,F
QI_PRU06,2011Q3,163,0.02,0.01,F
QI_PRU06,2011Q4,163,0.04,0.04,F
QI_PRU06,2012Q1,168,0.02,0.01,F
QI_PRU06,2012Q2,138,0.07,0.07,F
QI_PRU06,2012Q3,150,0.07,0.05,F
QI_PRU06,2012Q4,141,0.04,0.03,F
QI_PRU06,2013Q1,129,0.09,0.02,F
QI_PRU06,2013Q2,134,0.05,0.01,F
QI_PRU06,2013Q3,122,0.07,0.02,F
QI_PRU06,2013Q4,112,0.04,0.01,F
QI_PRU06,2014Q1,91,0.01,0.00,F
QI_PRU06,2014Q2,77,0.01,0.00,F
QI_PRU06,2014Q3,59,0.03,0.05,F
QI_PRU06,2014Q4,41,0.02,0.00,F
QI_PRU06,2008Q4,89,0.02,0.02,G
QI_PRU06,2009Q1,81,0.04,0.02,G
QI_PRU06,2009Q2,71,0.01,0.01,G
QI_PRU06,2009Q3,67,0.00,0.00,G
QI_PRU06,2009Q4,68,0.03,0.03,G
QI_PRU06,2010Q1,64,0.06,0.05,G
QI_PRU06,2010Q2,67,0.04,0.04,G
QI_PRU06,2010Q3,55,0.02,0.01,G
QI_PRU06,2010Q4,52,0.02,0.02,G
QI_PRU06,2011Q1,54,0.04,0.03,G
QI_PRU06,2011Q2,40,0.00,0.00,G
QI_PRU06,2011Q3,41,0.00,0.00,G
QI_PRU06,2011Q4,15,0.00,,G
QI_PRU06,2008Q4,17,0.06,,H
QI_PRU06,2009Q1,18,0.00,,H
QI_PRU06,2009Q2,17,0.00,,H
QI_PRU06,2009Q3,18,0.00,,H
QI_PRU06,2009Q4,21,0.05,0.04,H
QI_PRU06,2010Q1,19,0.00,,H
QI_PRU06,2010Q2,18,0.00,,H
QI_PRU06,2010Q3,18,0.00,,H
QI_PRU06,2010Q4,18,0.00,,H
QI_PRU06,2011Q1,17,0.06,,H
QI_PRU06,2011Q2,19,0.11,,H
QI_PRU06,2011Q3,18,0.06,,H
QI_PRU06,2011Q4,18,0.00,,H
QI_PRU06,2012Q1,19,0.00,,H
QI_PRU06,2012Q2,19,0.00,,H
QI_PRU06,2012Q3,18,0.00,,H
QI_PRU06,2012Q4,19,0.00,,H
QI_PRU06,2013Q1,20,0.00,0.00,H
QI_PRU06,2013Q2,20,0.00,0.00,H
QI_PRU06,2013Q3,16,0.00,,H
QI_PRU06,2013Q4,16,0.00,,H
QI_PRU06,2014Q1,15,0.00,,H
QI_PRU06,2014Q2,16,0.00,,H
QI_PRU06,2014Q3,12,0.08,,H
QI_PRU06,2014Q4,14,0.00,,H
QI_PRU06,2008Q4,141,0.06,0.01,I
QI_PRU06,2009Q1,129,0.09,0.02,I
QI_PRU06,2009Q2,140,0.02,0.01,I
QI_PRU06,2009Q3,147,0.05,0.01,I
QI_PRU06,2009Q4,136,0.02,0.01,I
QI_PRU06,2010Q1,140,0.09,0.07,I
QI_PRU06,2010Q2,153,0.01,0.00,I
QI_PRU06,2010Q3,135,0.06,0.01,I
QI_PRU06,2010Q4,125,0.02,0.01,I
QI_PRU06,2011Q1,122,0.09,0.02,I
QI_PRU06,2011Q2,123,0.03,0.01,I
QI_PRU06,2011Q3,117,0.06,0.05,I
QI_PRU06,2011Q4,110,0.04,0.03,I
QI_PRU06,2012Q1,114,0.04,0.03,I
QI_PRU06,2012Q2,111,0.03,0.01,I
QI_PRU06,2012Q3,126,0.01,0.00,I
QI_PRU06,2012Q4,119,0.08,0.02,I
QI_PRU06,2013Q1,123,0.05,0.01,I
QI_PRU06,2013Q2,114,0.04,0.01,I
QI_PRU06,2013Q3,125,0.03,0.01,I
QI_PRU06,2013Q4,128,0.02,0.00,I
QI_PRU06,2014Q1,133,0.01,0.00,I
QI_PRU06,2014Q2,118,0.03,0.01,I
QI_PRU06,2014Q3,104,0.01,0.01,I
QI_PRU06,2014Q4,113,0.04,0.01,I
QI_PRU06,2008Q4,79,0.04,0.01,J
QI_PRU06,2009Q1,79,0.03,0.02,J
QI_PRU06,2009Q2,81,0.04,0.01,J
QI_PRU06,2009Q3,86,0.01,0.00,J
QI_PRU06,2009Q4,81,0.06,0.02,J
QI_PRU06,2010Q1,78,0.05,0.02,J
QI_PRU06,2010Q2,84,0.04,0.01,J
QI_PRU06,2010Q3,88,0.01,0.00,J
QI_PRU06,2010Q4,88,0.05,0.01,J
QI_PRU06,2011Q1,84,0.05,0.05,J
QI_PRU06,2011Q2,92,0.11,0.09,J
QI_PRU06,2011Q3,106,0.03,0.01,J
QI_PRU06,2011Q4,103,0.04,0.01,J
QI_PRU06,2012Q1,105,0.03,0.01,J
QI_PRU06,2012Q2,121,0.06,0.01,J
QI_PRU06,2012Q3,115,0.03,0.03,J
QI_PRU06,2012Q4,118,0.03,0.05,J
QI_PRU06,2013Q1,119,0.04,0.03,J
QI_PRU06,2013Q2,117,0.03,0.03,J
QI_PRU06,2013Q3,131,0.00,0.00,J
QI_PRU06,2013Q4,135,0.05,0.04,J
QI_PRU06,2014Q1,127,0.02,0.01,J
QI_PRU06,2014Q2,135,0.03,0.02,J
QI_PRU06,2014Q3,131,0.00,0.00,J
QI_PRU06,2014Q4,122,0.01,0.01,J
QI_PRU09,2008Q4,44,0.11,0.03,A
QI_PRU09,2009Q1,42,0.05,0.04,A
QI_PRU09,2009Q2,50,0.10,0.03,A
QI_PRU09,2009Q3,41,0.10,0.03,A
QI_PRU09,2009Q4,43,0.12,0.07,A
QI_PRU09,2010Q1,44,0.00,0.00,A
QI_PRU09,2010Q2,44,0.09,0.03,A
QI_PRU09,2010Q3,42,0.07,0.05,A
QI_PRU09,2010Q4,37,0.00,0.00,A
QI_PRU09,2011Q1,36,0.06,0.04,A
QI_PRU09,2011Q2,37,0.00,0.00,A
QI_PRU09,2011Q3,35,0.00,0.00,A
QI_PRU09,2011Q4,33,0.06,0.05,A
QI_PRU09,2012Q1,34,0.00,0.00,A
QI_PRU09,2012Q2,42,0.05,0.02,A
QI_PRU09,2012Q3,38,0.03,0.01,A
QI_PRU09,2012Q4,26,0.00,0.00,A
QI_PRU09,2013Q1,32,0.00,0.00,A
QI_PRU09,2013Q2,37,0.05,0.04,A
QI_PRU09,2013Q3,42,0.07,0.07,A
QI_PRU09,2013Q4,38,0.05,0.02,A
QI_PRU09,2014Q1,37,0.00,0.00,A
QI_PRU09,2014Q2,40,0.05,0.02,A
QI_PRU09,2014Q3,41,0.02,0.01,A
QI_PRU09,2014Q4,35,0.00,0.00,A
QI_PRU09,2008Q4,9,0.11,,B
QI_PRU09,2009Q1,8,0.25,,B
QI_PRU09,2009Q2,8,0.13,,B
QI_PRU09,2009Q3,7,0.43,,B
QI_PRU09,2009Q4,4,0.00,,B
QI_PRU09,2010Q1,6,0.00,,B
QI_PRU09,2010Q2,4,0.00,,B
QI_PRU09,2010Q3,3,0.00,,B
QI_PRU09,2010Q4,5,0.00,,B
QI_PRU09,2011Q1,5,0.00,,B
QI_PRU09,2011Q2,4,0.00,,B
QI_PRU09,2011Q3,4,0.00,,B
QI_PRU09,2011Q4,8,0.13,,B
QI_PRU09,2012Q1,4,0.00,,B
QI_PRU09,2012Q2,9,0.11,,B
QI_PRU09,2012Q3,7,0.14,,B
QI_PRU09,2012Q4,7,0.29,,B
QI_PRU09,2013Q1,7,0.14,,B
QI_PRU09,2013Q2,7,0.00,,B
QI_PRU09,2013Q3,7,0.00,,B
QI_PRU09,2013Q4,2,0.00,,B
QI_PRU09,2014Q1,8,0.13,,B
QI_PRU09,2014Q2,6,0.00,,B
QI_PRU09,2014Q3,8,0.00,,B
QI_PRU09,2014Q4,12,0.00,,B
QI_PRU09,2008Q4,115,0.02,0.00,C
QI_PRU09,2009Q1,115,0.01,0.01,C
QI_PRU09,2009Q2,118,0.05,0.01,C
QI_PRU09,2009Q3,104,0.05,0.03,C
QI_PRU09,2009Q4,111,0.05,0.05,C
QI_PRU09,2010Q1,100,0.02,0.00,C
QI_PRU09,2010Q2,109,0.06,0.01,C
QI_PRU09,2010Q3,105,0.02,0.00,C
QI_PRU09,2010Q4,117,0.03,0.01,C
QI_PRU09,2011Q1,116,0.01,0.01,C
QI_PRU09,2011Q2,122,0.02,0.00,C
QI_PRU09,2011Q3,125,0.02,0.07,C
QI_PRU09,2011Q4,119,0.02,0.01,C
QI_PRU09,2012Q1,112,0.04,0.03,C
QI_PRU09,2012Q2,105,0.04,0.02,C
QI_PRU09,2012Q3,106,0.04,0.02,C
QI_PRU09,2012Q4,106,0.03,0.01,C
QI_PRU09,2013Q1,99,0.06,0.04,C
QI_PRU09,2013Q2,95,0.01,0.01,C
QI_PRU09,2013Q3,95,0.02,0.01,C
QI_PRU09,2013Q4,100,0.01,0.00,C
QI_PRU09,2014Q1,104,0.02,0.01,C
QI_PRU09,2014Q2,88,0.02,0.02,C
QI_PRU09,2014Q3,93,0.04,0.03,C
QI_PRU09,2014Q4,96,0.03,0.01,C
QI_PRU09,2008Q4,239,0.05,0.02,D
QI_PRU09,2009Q1,241,0.04,0.01,D
QI_PRU09,2009Q2,236,0.03,0.01,D
QI_PRU09,2009Q3,253,0.06,0.02,D
QI_PRU09,2009Q4,229,0.06,0.02,D
QI_PRU09,2010Q1,243,0.05,0.01,D
QI_PRU09,2010Q2,246,0.05,0.01,D
QI_PRU09,2010Q3,235,0.03,0.01,D
QI_PRU09,2010Q4,245,0.04,0.01,D
QI_PRU09,2011Q1,242,0.03,0.02,D
QI_PRU09,2011Q2,245,0.02,0.01,D
QI_PRU09,2011Q3,249,0.03,0.02,D
QI_PRU09,2011Q4,250,0.02,0.01,D
QI_PRU09,2012Q1,273,0.05,0.03,D
QI_PRU09,2012Q2,264,0.04,0.02,D
QI_PRU09,2012Q3,246,0.02,0.01,D
QI_PRU09,2012Q4,251,0.03,0.02,D
QI_PRU09,2013Q1,244,0.02,0.01,D
QI_PRU09,2013Q2,244,0.05,0.02,D
QI_PRU09,2013Q3,247,0.02,0.01,D
QI_PRU09,2013Q4,247,0.02,0.01,D
QI_PRU09,2014Q1,255,0.04,0.02,D
QI_PRU09,2014Q2,264,0.02,0.01,D
QI_PRU09,2014Q3,254,0.02,0.01,D
QI_PRU09,2014Q4,251,0.02,0.01,D
QI_PRU09,2008Q4,105,0.03,0.01,E
QI_PRU09,2009Q1,100,0.05,0.03,E
QI_PRU09,2009Q2,102,0.07,0.04,E
QI_PRU09,2009Q3,105,0.03,0.02,E
QI_PRU09,2009Q4,95,0.06,0.06,E
QI_PRU09,2010Q1,71,0.04,0.04,E
QI_PRU09,2010Q2,58,0.03,0.04,E
QI_PRU09,2010Q3,56,0.02,0.01,E
QI_PRU09,2010Q4,60,0.02,0.01,E
QI_PRU09,2011Q1,47,0.02,0.01,E
QI_PRU09,2011Q2,61,0.15,0.12,E
QI_PRU09,2011Q3,48,0.06,0.04,E
QI_PRU09,2011Q4,41,0.07,0.02,E
QI_PRU09,2012Q1,38,0.11,0.03,E
QI_PRU09,2012Q2,30,0.07,0.05,E
QI_PRU09,2012Q3,33,0.15,0.09,E
QI_PRU09,2012Q4,31,0.03,0.01,E
QI_PRU09,2013Q1,26,0.08,0.07,E
QI_PRU09,2013Q2,22,0.09,0.08,E
QI_PRU09,2013Q3,23,0.09,0.08,E
QI_PRU09,2013Q4,20,0.20,0.17,E
QI_PRU09,2014Q1,20,0.10,0.08,E
QI_PRU09,2014Q2,27,0.11,0.04,E
QI_PRU09,2014Q3,41,0.15,0.09,E
QI_PRU09,2014Q4,25,0.16,0.10,E
QI_PRU09,2008Q4,61,0.00,0.00,TGHC
QI_PRU09,2009Q1,63,0.00,0.00,TGHC
QI_PRU09,2009Q2,66,0.03,0.02,TGHC
QI_PRU09,2009Q3,62,0.02,0.01,TGHC
QI_PRU09,2009Q4,68,0.00,0.00,TGHC
QI_PRU09,2010Q1,60,0.05,0.03,TGHC
QI_PRU09,2010Q2,56,0.02,0.01,TGHC
QI_PRU09,2010Q3,55,0.05,0.04,TGHC
QI_PRU09,2010Q4,53,0.02,0.01,TGHC
QI_PRU09,2011Q1,47,0.09,0.03,TGHC
QI_PRU09,2011Q2,40,0.03,0.01,TGHC
QI_PRU09,2011Q3,47,0.02,0.01,TGHC
QI_PRU09,2011Q4,40,0.03,0.01,TGHC
QI_PRU09,2012Q1,61,0.10,0.03,TGHC
QI_PRU09,2012Q2,54,0.04,0.01,TGHC
QI_PRU09,2012Q3,58,0.00,0.00,TGHC
QI_PRU09,2012Q4,61,0.00,0.00,TGHC
QI_PRU09,2013Q1,65,0.02,0.00,TGHC
QI_PRU09,2013Q2,61,0.07,0.05,TGHC
QI_PRU09,2013Q3,60,0.07,0.02,TGHC
QI_PRU09,2013Q4,63,0.13,0.07,TGHC
QI_PRU09,2014Q1,50,0.06,0.04,TGHC
QI_PRU09,2014Q2,58,0.10,0.06,TGHC
QI_PRU09,2014Q3,50,0.08,0.07,TGHC
QI_PRU09,2014Q4,52,0.06,0.02,TGHC
QI_PRU09,2008Q4,146,0.03,0.01,F
QI_PRU09,2009Q1,153,0.03,0.01,F
QI_PRU09,2009Q2,145,0.05,0.03,F
QI_PRU09,2009Q3,148,0.04,0.03,F
QI_PRU09,2009Q4,141,0.04,0.01,F
QI_PRU09,2010Q1,159,0.06,0.03,F
QI_PRU09,2010Q2,159,0.03,0.01,F
QI_PRU09,2010Q3,149,0.01,0.00,F
QI_PRU09,2010Q4,143,0.02,0.01,F
QI_PRU09,2011Q1,124,0.02,0.01,F
QI_PRU09,2011Q2,137,0.03,0.01,F
QI_PRU09,2011Q3,143,0.03,0.01,F
QI_PRU09,2011Q4,145,0.04,0.04,F
QI_PRU09,2012Q1,143,0.02,0.01,F
QI_PRU09,2012Q2,115,0.07,0.06,F
QI_PRU09,2012Q3,131,0.08,0.04,F
QI_PRU09,2012Q4,129,0.02,0.00,F
QI_PRU09,2013Q1,113,0.09,0.02,F
QI_PRU09,2013Q2,115,0.05,0.01,F
QI_PRU09,2013Q3,108,0.06,0.02,F
QI_PRU09,2013Q4,97,0.02,0.01,F
QI_PRU09,2014Q1,85,0.01,0.00,F
QI_PRU09,2014Q2,64,0.00,0.00,F
QI_PRU09,2014Q3,54,0.04,0.05,F
QI_PRU09,2014Q4,37,0.03,0.00,F
QI_PRU09,2008Q4,78,0.03,0.02,G
QI_PRU09,2009Q1,70,0.03,0.02,G
QI_PRU09,2009Q2,64,0.02,0.01,G
QI_PRU09,2009Q3,60,0.00,0.00,G
QI_PRU09,2009Q4,58,0.00,0.00,G
QI_PRU09,2010Q1,58,0.07,0.05,G
QI_PRU09,2010Q2,58,0.03,0.02,G
QI_PRU09,2010Q3,46,0.00,0.00,G
QI_PRU09,2010Q4,44,0.02,0.02,G
QI_PRU09,2011Q1,47,0.04,0.03,G
QI_PRU09,2011Q2,33,0.00,0.00,G
QI_PRU09,2011Q3,33,0.00,0.00,G
QI_PRU09,2011Q4,12,0.00,,G
QI_PRU09,2008Q4,16,0.00,,H
QI_PRU09,2009Q1,17,0.00,,H
QI_PRU09,2009Q2,16,0.00,,H
QI_PRU09,2009Q3,17,0.00,,H
QI_PRU09,2009Q4,20,0.00,0.00,H
QI_PRU09,2010Q1,19,0.00,,H
QI_PRU09,2010Q2,18,0.00,,H
QI_PRU09,2010Q3,18,0.00,,H
QI_PRU09,2010Q4,18,0.00,,H
QI_PRU09,2011Q1,17,0.06,,H
QI_PRU09,2011Q2,17,0.12,,H
QI_PRU09,2011Q3,15,0.00,,H
QI_PRU09,2011Q4,17,0.00,,H
QI_PRU09,2012Q1,18,0.00,,H
QI_PRU09,2012Q2,19,0.00,,H
QI_PRU09,2012Q3,18,0.00,,H
QI_PRU09,2012Q4,19,0.00,,H
QI_PRU09,2013Q1,20,0.00,0.00,H
QI_PRU09,2013Q2,20,0.00,0.00,H
QI_PRU09,2013Q3,16,0.00,,H
QI_PRU09,2013Q4,16,0.00,,H
QI_PRU09,2014Q1,15,0.00,,H
QI_PRU09,2014Q2,16,0.00,,H
QI_PRU09,2014Q3,12,0.08,,H
QI_PRU09,2014Q4,12,0.00,,H
QI_PRU09,2008Q4,114,0.04,0.01,I
QI_PRU09,2009Q1,111,0.07,0.02,I
QI_PRU09,2009Q2,117,0.03,0.01,I
QI_PRU09,2009Q3,123,0.04,0.01,I
QI_PRU09,2009Q4,114,0.02,0.00,I
QI_PRU09,2010Q1,123,0.08,0.04,I
QI_PRU09,2010Q2,126,0.01,0.00,I
QI_PRU09,2010Q3,116,0.05,0.01,I
QI_PRU09,2010Q4,104,0.03,0.01,I
QI_PRU09,2011Q1,103,0.07,0.02,I
QI_PRU09,2011Q2,104,0.02,0.00,I
QI_PRU09,2011Q3,101,0.07,0.04,I
QI_PRU09,2011Q4,97,0.02,0.01,I
QI_PRU09,2012Q1,102,0.04,0.02,I
QI_PRU09,2012Q2,98,0.03,0.01,I
QI_PRU09,2012Q3,109,0.01,0.00,I
QI_PRU09,2012Q4,102,0.07,0.02,I
QI_PRU09,2013Q1,98,0.03,0.01,I
QI_PRU09,2013Q2,98,0.04,0.01,I
QI_PRU09,2013Q3,106,0.04,0.01,I
QI_PRU09,2013Q4,110,0.02,0.00,I
QI_PRU09,2014Q1,122,0.01,0.00,I
QI_PRU09,2014Q2,107,0.03,0.01,I
QI_PRU09,2014Q3,92,0.00,0.00,I
QI_PRU09,2014Q4,100,0.04,0.01,I
QI_PRU09,2008Q4,75,0.04,0.01,J
QI_PRU09,2009Q1,76,0.03,0.02,J
QI_PRU09,2009Q2,77,0.04,0.01,J
QI_PRU09,2009Q3,80,0.01,0.00,J
QI_PRU09,2009Q4,78,0.05,0.01,J
QI_PRU09,2010Q1,74,0.05,0.02,J
QI_PRU09,2010Q2,79,0.03,0.00,J
QI_PRU09,2010Q3,83,0.01,0.00,J
QI_PRU09,2010Q4,83,0.04,0.01,J
QI_PRU09,2011Q1,81,0.05,0.04,J
QI_PRU09,2011Q2,85,0.07,0.05,J
QI_PRU09,2011Q3,92,0.02,0.01,J
QI_PRU09,2011Q4,90,0.03,0.01,J
QI_PRU09,2012Q1,97,0.02,0.00,J
QI_PRU09,2012Q2,112,0.04,0.01,J
QI_PRU09,2012Q3,106,0.01,0.01,J
QI_PRU09,2012Q4,110,0.02,0.01,J
QI_PRU09,2013Q1,110,0.02,0.01,J
QI_PRU09,2013Q2,114,0.03,0.02,J
QI_PRU09,2013Q3,119,0.00,0.00,J
QI_PRU09,2013Q4,125,0.03,0.02,J
QI_PRU09,2014Q1,121,0.01,0.00,J
QI_PRU09,2014Q2,129,0.02,0.02,J
QI_PRU09,2014Q3,125,0.00,0.00,J
QI_PRU09,2014Q4,116,0.01,0.01,J
