Table,pur,ax_fq,_TYPE_,_TABLE_,Frequency,ColPercent,Missing
Table pur * ax_fq,0,2008Q3,11,1,7,9.8591549296,
Table pur * ax_fq,0,2008Q4,11,1,5,6.7567567568,
Table pur * ax_fq,0,2009Q1,11,1,8,10.526315789,
Table pur * ax_fq,0,2009Q2,11,1,5,6.25,
Table pur * ax_fq,0,2009Q3,11,1,2,2.6666666667,
Table pur * ax_fq,0,2009Q4,11,1,4,4.7619047619,
Table pur * ax_fq,0,2010Q1,11,1,4,5.1282051282,
Table pur * ax_fq,0,2010Q2,11,1,5,6.8493150685,
Table pur * ax_fq,0,2010Q3,11,1,3,4.2857142857,
Table pur * ax_fq,0,2010Q4,11,1,4,5.5555555556,
Table pur * ax_fq,0,2011Q1,11,1,4,6.1538461538,
Table pur * ax_fq,0,2011Q2,11,1,2,3.2786885246,
Table pur * ax_fq,0,2011Q3,11,1,2,3.2786885246,
Table pur * ax_fq,0,2011Q4,11,1,1,1.724137931,
Table pur * ax_fq,0,2012Q1,11,1,6,8,
Table pur * ax_fq,0,2012Q2,11,1,6,8.2191780822,
Table pur * ax_fq,0,2012Q3,11,1,6,7.7922077922,
Table pur * ax_fq,0,2012Q4,11,1,5,6.4102564103,
Table pur * ax_fq,0,2013Q1,11,1,5,6.4102564103,
Table pur * ax_fq,0,2013Q2,11,1,3,4.0540540541,
Table pur * ax_fq,0,2013Q3,11,1,3,4.2857142857,
Table pur * ax_fq,0,2013Q4,11,1,9,12.162162162,
Table pur * ax_fq,0,2014Q1,11,1,3,4.5454545455,
Table pur * ax_fq,0,2014Q2,11,1,6,8.3333333333,
Table pur * ax_fq,0,2014Q3,11,1,5,7.5757575758,
Table pur * ax_fq,0,2014Q4,11,1,5,6.9444444444,
Table pur * ax_fq,0,,10,1,118,,
Table pur * ax_fq,1,2008Q3,11,1,15,21.126760563,
Table pur * ax_fq,1,2008Q4,11,1,7,9.4594594595,
Table pur * ax_fq,1,2009Q1,11,1,10,13.157894737,
Table pur * ax_fq,1,2009Q2,11,1,19,23.75,
Table pur * ax_fq,1,2009Q3,11,1,22,29.333333333,
Table pur * ax_fq,1,2009Q4,11,1,24,28.571428571,
Table pur * ax_fq,1,2010Q1,11,1,19,24.358974359,
Table pur * ax_fq,1,2010Q2,11,1,20,27.397260274,
Table pur * ax_fq,1,2010Q3,11,1,22,31.428571429,
Table pur * ax_fq,1,2010Q4,11,1,25,34.722222222,
Table pur * ax_fq,1,2011Q1,11,1,15,23.076923077,
Table pur * ax_fq,1,2011Q2,11,1,11,18.032786885,
Table pur * ax_fq,1,2011Q3,11,1,11,18.032786885,
Table pur * ax_fq,1,2011Q4,11,1,13,22.413793103,
Table pur * ax_fq,1,2012Q1,11,1,17,22.666666667,
Table pur * ax_fq,1,2012Q2,11,1,14,19.178082192,
Table pur * ax_fq,1,2012Q3,11,1,11,14.285714286,
Table pur * ax_fq,1,2012Q4,11,1,14,17.948717949,
Table pur * ax_fq,1,2013Q1,11,1,13,16.666666667,
Table pur * ax_fq,1,2013Q2,11,1,18,24.324324324,
Table pur * ax_fq,1,2013Q3,11,1,14,20,
Table pur * ax_fq,1,2013Q4,11,1,15,20.27027027,
Table pur * ax_fq,1,2014Q1,11,1,11,16.666666667,
Table pur * ax_fq,1,2014Q2,11,1,14,19.444444444,
Table pur * ax_fq,1,2014Q3,11,1,12,18.181818182,
Table pur * ax_fq,1,2014Q4,11,1,12,16.666666667,
Table pur * ax_fq,1,,10,1,398,,
Table pur * ax_fq,2,2008Q3,11,1,28,39.436619718,
Table pur * ax_fq,2,2008Q4,11,1,36,48.648648649,
Table pur * ax_fq,2,2009Q1,11,1,32,42.105263158,
Table pur * ax_fq,2,2009Q2,11,1,32,40,
Table pur * ax_fq,2,2009Q3,11,1,29,38.666666667,
Table pur * ax_fq,2,2009Q4,11,1,34,40.476190476,
Table pur * ax_fq,2,2010Q1,11,1,33,42.307692308,
Table pur * ax_fq,2,2010Q2,11,1,28,38.356164384,
Table pur * ax_fq,2,2010Q3,11,1,22,31.428571429,
Table pur * ax_fq,2,2010Q4,11,1,20,27.777777778,
Table pur * ax_fq,2,2011Q1,11,1,21,32.307692308,
Table pur * ax_fq,2,2011Q2,11,1,22,36.06557377,
Table pur * ax_fq,2,2011Q3,11,1,26,42.62295082,
Table pur * ax_fq,2,2011Q4,11,1,20,34.482758621,
Table pur * ax_fq,2,2012Q1,11,1,24,32,
Table pur * ax_fq,2,2012Q2,11,1,26,35.616438356,
Table pur * ax_fq,2,2012Q3,11,1,22,28.571428571,
Table pur * ax_fq,2,2012Q4,11,1,22,28.205128205,
Table pur * ax_fq,2,2013Q1,11,1,25,32.051282051,
Table pur * ax_fq,2,2013Q2,11,1,32,43.243243243,
Table pur * ax_fq,2,2013Q3,11,1,23,32.857142857,
Table pur * ax_fq,2,2013Q4,11,1,22,29.72972973,
Table pur * ax_fq,2,2014Q1,11,1,29,43.939393939,
Table pur * ax_fq,2,2014Q2,11,1,33,45.833333333,
Table pur * ax_fq,2,2014Q3,11,1,25,37.878787879,
Table pur * ax_fq,2,2014Q4,11,1,26,36.111111111,
Table pur * ax_fq,2,,10,1,692,,
Table pur * ax_fq,3,2008Q3,11,1,20,28.169014085,
Table pur * ax_fq,3,2008Q4,11,1,24,32.432432432,
Table pur * ax_fq,3,2009Q1,11,1,23,30.263157895,
Table pur * ax_fq,3,2009Q2,11,1,22,27.5,
Table pur * ax_fq,3,2009Q3,11,1,21,28,
Table pur * ax_fq,3,2009Q4,11,1,21,25,
Table pur * ax_fq,3,2010Q1,11,1,22,28.205128205,
Table pur * ax_fq,3,2010Q2,11,1,20,27.397260274,
Table pur * ax_fq,3,2010Q3,11,1,23,32.857142857,
Table pur * ax_fq,3,2010Q4,11,1,22,30.555555556,
Table pur * ax_fq,3,2011Q1,11,1,23,35.384615385,
Table pur * ax_fq,3,2011Q2,11,1,26,42.62295082,
Table pur * ax_fq,3,2011Q3,11,1,22,36.06557377,
Table pur * ax_fq,3,2011Q4,11,1,24,41.379310345,
Table pur * ax_fq,3,2012Q1,11,1,28,37.333333333,
Table pur * ax_fq,3,2012Q2,11,1,26,35.616438356,
Table pur * ax_fq,3,2012Q3,11,1,35,45.454545455,
Table pur * ax_fq,3,2012Q4,11,1,33,42.307692308,
Table pur * ax_fq,3,2013Q1,11,1,33,42.307692308,
Table pur * ax_fq,3,2013Q2,11,1,18,24.324324324,
Table pur * ax_fq,3,2013Q3,11,1,27,38.571428571,
Table pur * ax_fq,3,2013Q4,11,1,23,31.081081081,
Table pur * ax_fq,3,2014Q1,11,1,20,30.303030303,
Table pur * ax_fq,3,2014Q2,11,1,16,22.222222222,
Table pur * ax_fq,3,2014Q3,11,1,17,25.757575758,
Table pur * ax_fq,3,2014Q4,11,1,27,37.5,
Table pur * ax_fq,3,,10,1,616,,
Table pur * ax_fq,4,2008Q3,11,1,1,1.4084507042,
Table pur * ax_fq,4,2008Q4,11,1,2,2.7027027027,
Table pur * ax_fq,4,2009Q1,11,1,3,3.9473684211,
Table pur * ax_fq,4,2009Q2,11,1,2,2.5,
Table pur * ax_fq,4,2009Q3,11,1,1,1.3333333333,
Table pur * ax_fq,4,2009Q4,11,1,1,1.1904761905,
Table pur * ax_fq,4,2010Q1,11,1,0,0,
Table pur * ax_fq,4,2010Q2,11,1,0,0,
Table pur * ax_fq,4,2010Q3,11,1,0,0,
Table pur * ax_fq,4,2010Q4,11,1,1,1.3888888889,
Table pur * ax_fq,4,2011Q1,11,1,2,3.0769230769,
Table pur * ax_fq,4,2011Q2,11,1,0,0,
Table pur * ax_fq,4,2011Q3,11,1,0,0,
Table pur * ax_fq,4,2011Q4,11,1,0,0,
Table pur * ax_fq,4,2012Q1,11,1,0,0,
Table pur * ax_fq,4,2012Q2,11,1,1,1.3698630137,
Table pur * ax_fq,4,2012Q3,11,1,3,3.8961038961,
Table pur * ax_fq,4,2012Q4,11,1,4,5.1282051282,
Table pur * ax_fq,4,2013Q1,11,1,2,2.5641025641,
Table pur * ax_fq,4,2013Q2,11,1,3,4.0540540541,
Table pur * ax_fq,4,2013Q3,11,1,3,4.2857142857,
Table pur * ax_fq,4,2013Q4,11,1,5,6.7567567568,
Table pur * ax_fq,4,2014Q1,11,1,3,4.5454545455,
Table pur * ax_fq,4,2014Q2,11,1,3,4.1666666667,
Table pur * ax_fq,4,2014Q3,11,1,7,10.606060606,
Table pur * ax_fq,4,2014Q4,11,1,2,2.7777777778,
Table pur * ax_fq,4,,10,1,49,,
Table pur * ax_fq,,2008Q3,01,1,71,,
Table pur * ax_fq,,2008Q4,01,1,74,,
Table pur * ax_fq,,2009Q1,01,1,76,,
Table pur * ax_fq,,2009Q2,01,1,80,,
Table pur * ax_fq,,2009Q3,01,1,75,,
Table pur * ax_fq,,2009Q4,01,1,84,,
Table pur * ax_fq,,2010Q1,01,1,78,,
Table pur * ax_fq,,2010Q2,01,1,73,,
Table pur * ax_fq,,2010Q3,01,1,70,,
Table pur * ax_fq,,2010Q4,01,1,72,,
Table pur * ax_fq,,2011Q1,01,1,65,,
Table pur * ax_fq,,2011Q2,01,1,61,,
Table pur * ax_fq,,2011Q3,01,1,61,,
Table pur * ax_fq,,2011Q4,01,1,58,,
Table pur * ax_fq,,2012Q1,01,1,75,,
Table pur * ax_fq,,2012Q2,01,1,73,,
Table pur * ax_fq,,2012Q3,01,1,77,,
Table pur * ax_fq,,2012Q4,01,1,78,,
Table pur * ax_fq,,2013Q1,01,1,78,,
Table pur * ax_fq,,2013Q2,01,1,74,,
Table pur * ax_fq,,2013Q3,01,1,70,,
Table pur * ax_fq,,2013Q4,01,1,74,,
Table pur * ax_fq,,2014Q1,01,1,66,,
Table pur * ax_fq,,2014Q2,01,1,72,,
Table pur * ax_fq,,2014Q3,01,1,66,,
Table pur * ax_fq,,2014Q4,01,1,72,,
Table pur * ax_fq,,,00,1,1873,,0
