ax_fq,mean,std,lhin
2008 Q3,4.361630695,1.676776346,1
2008 Q4,4.3585,1.707757585,1
2009 Q1,4.305651106,1.693861468,1
2009 Q2,4.271749756,1.717294047,1
2009 Q3,4.382968601,1.607738052,1
2009 Q4,4.2852077,1.679673065,1
2010 Q1,4.280457484,1.686620156,1
2010 Q2,4.315967197,1.679716819,1
2010 Q3,4.245007306,1.648107386,1
2010 Q4,4.266866567,1.656425859,1
2011 Q1,4.204280156,1.638972192,1
2011 Q2,4.191204589,1.616438476,1
2011 Q3,4.228989613,1.588804127,1
2011 Q4,4.268410853,1.567870013,1
2012 Q1,4.147283127,1.624721027,1
2012 Q2,4.196011673,1.557964749,1
2012 Q3,4.200378967,1.552286144,1
2012 Q4,4.227941177,1.55004902,1
2013 Q1,4.176555716,1.56693954,1
2013 Q2,4.163751215,1.538331468,1
2013 Q3,4.165620473,1.541094438,1
2013 Q4,4.086783042,1.56159301,1
2014 Q1,4.014098201,1.574756969,1
2014 Q2,4.155911203,1.492563317,1
2014 Q3,4.181635725,1.484228984,1
2014 Q4,4.154972236,1.466705152,1
2015 Q1,4.148018063,1.46979882,1
2008 Q3,4.192660551,1.931594353,0
2008 Q4,4.171428571,1.943713451,0
2009 Q1,4.118181818,1.805861091,0
2009 Q2,4,1.896399292,0
2009 Q3,3.973684211,1.864719136,0
2009 Q4,4.238095238,1.756985013,0
2010 Q1,4.135135135,1.724088621,0
2010 Q2,4.267857143,1.790777892,0
2010 Q3,4.087719298,1.807366458,0
2010 Q4,4.087719298,1.792617128,0
2011 Q1,4.361111111,1.608728141,0
2011 Q2,4.428571429,1.653357413,0
2011 Q3,4.304761905,1.824638054,0
2011 Q4,4.323529412,1.752857722,0
2012 Q1,4.298076923,1.789287474,0
2012 Q2,4.192982456,1.908885571,0
2012 Q3,4.504672897,1.701130766,0
2012 Q4,4.434782609,1.691726175,0
2013 Q1,4.293103448,1.836903071,0
2013 Q2,4.207920792,1.773791598,0
2013 Q3,4.166666667,1.710331443,0
2013 Q4,4.123809524,1.752444656,0
2014 Q1,4.194444444,1.665809749,0
2014 Q2,4.339449541,1.639897148,0
2014 Q3,4.254385965,1.67126365,0
2014 Q4,4.339622642,1.661249057,0
2015 Q1,4.339622642,1.649743371,0