ax_fq,mean,std,lhin
2008Q3,2.860911271,1.512847138,1
2008Q4,2.8725,1.5360414909,1
2009Q1,2.828009828,1.5438212943,1
2009Q2,2.8108504399,1.5545184744,1
2009Q3,2.880952381,1.4929145175,1
2009Q4,2.8323201621,1.5298181676,1
2010Q1,2.8005967181,1.5165815323,1
2010Q2,2.7915057915,1.5438122001,1
2010Q3,2.7510959571,1.5540630947,1
2010Q4,2.7951024488,1.567480782,1
2011Q1,2.7388132296,1.5066345901,1
2011Q2,2.6905786705,1.5209548121,1
2011Q3,2.753068933,1.5300262041,1
2011Q4,2.7582364341,1.4890715128,1
2012Q1,2.6611058151,1.4929569566,1
2012Q2,2.6444552529,1.4796423567,1
2012Q3,2.7063003316,1.460361931,1
2012Q4,2.7151960784,1.4669029543,1
2013Q1,2.6859623734,1.5026619728,1
2013Q2,2.6917841517,1.4851062062,1
2013Q3,2.6817962337,1.4863799876,1
2013Q4,2.6408977556,1.4830119834,1
2014Q1,2.5969859018,1.5133808675,1
2014Q2,2.7010841507,1.4996431606,1
2014Q3,2.7094831912,1.5194176198,1
2014Q4,2.6643109541,1.487959552,1
2015Q1,2.6522829905,1.478091701,1
2008Q3,2.6697247706,1.4596742779,
2008Q4,2.6571428571,1.4533024159,
2009Q1,2.8363636364,1.4240868488,
2009Q2,2.6636363636,1.4543656061,
2009Q3,2.6052631579,1.2523847768,
2009Q4,2.6761904762,1.244180593,
2010Q1,2.5855855856,1.2538556425,
2010Q2,2.6428571429,1.2794786583,
2010Q3,2.5964912281,1.3417680731,
2010Q4,2.5614035088,1.3699369388,
2011Q1,2.712962963,1.3188137258,
2011Q2,2.8571428571,1.1919938846,
2011Q3,2.7142857143,1.2838814775,
2011Q4,2.8137254902,1.2876441929,
2012Q1,2.7788461538,1.3362513191,
2012Q2,2.7280701754,1.4711688672,
2012Q3,2.9906542056,1.5631084603,
2012Q4,2.8956521739,1.5181585859,
2013Q1,2.75,1.4912789959,
2013Q2,2.8613861386,1.5035272061,
2013Q3,2.8333333333,1.5069930449,
2013Q4,2.7238095238,1.8000813982,
2014Q1,2.6203703704,1.5868477693,
2014Q2,2.7155963303,1.5280812413,
2014Q3,2.8947368421,1.6689163516,
2014Q4,2.7641509434,1.6009038328,
2015Q1,2.8773584906,1.4054508186,
